<svg width="20" height="10" viewBox="0 0 20 10" fill="none" xmlns="http://www.w3.org/2000/svg">
<path fill-rule="evenodd" clip-rule="evenodd" d="M2.10175 0.292568L9.98792 7.2331L17.9173 0.292568C18.9623 -0.645898 20.7497 0.893382 19.66 1.83061L10.7288 9.74676C10.3367 10.0844 9.68374 10.0844 9.33491 9.74676L0.316983 1.83061C-0.728061 0.892143 1.05789 -0.64593 2.10293 0.292568H2.10175Z" fill="#252525"/>
</svg>
