<svg width="144" height="31" viewBox="0 0 144 31" fill="none" xmlns="http://www.w3.org/2000/svg">
<path d="M137.733 18.1737C140.459 18.1737 142.384 16.2491 142.384 13.6295C142.384 11.0099 140.459 9.08529 137.733 9.08529C135.006 9.08529 133.082 11.0099 133.082 13.6295C133.082 16.2491 135.006 18.1737 137.733 18.1737ZM137.733 17.8663C135.18 17.8663 133.403 16.0754 133.403 13.6295C133.403 11.1837 135.18 9.39269 137.733 9.39269C140.286 9.39269 142.063 11.1837 142.063 13.6295C142.063 16.0754 140.286 17.8663 137.733 17.8663ZM136.009 15.9016H136.343V14.1641H137.987L139.457 15.9016H139.885L138.388 14.1641C139.23 14.0973 139.751 13.5493 139.751 12.7608C139.751 11.9188 139.19 11.3574 138.241 11.3574H136.009V15.9016ZM136.343 13.8567V11.6648H138.241C139.003 11.6648 139.417 12.1059 139.417 12.7608C139.417 13.4023 139.003 13.8567 138.241 13.8567H136.343Z" fill="white"/>
<path d="M3.04495 25.9131H5.58437V16.8514H12.8284V14.5258H5.58437V12.3071C5.58437 9.98155 6.84072 8.93905 8.7386 8.93905C10.6098 8.93905 11.8928 9.95482 11.8928 12.3339H14.4055C14.4055 8.51136 12.1067 6.58674 8.7386 6.58674C5.3438 6.58674 3.04495 8.48462 3.04495 12.3071V25.9131ZM17.3726 10.6231C18.3884 10.6231 19.1369 9.84789 19.1369 8.83212C19.1369 7.81635 18.3884 7.06789 17.3726 7.06789C16.3569 7.06789 15.6084 7.81635 15.6084 8.83212C15.6084 9.84789 16.3569 10.6231 17.3726 10.6231ZM16.1163 25.9131H18.6557V12.7081H16.1163V25.9131ZM28.7558 26.2606C32.9525 26.2606 35.8929 23.3737 35.8929 19.2304C35.8929 14.8465 32.6317 12.3606 29.1835 12.3606C27.045 12.3606 25.2273 13.3229 24.265 15.0337V6.93424H21.7256V19.2037C21.7256 23.5073 24.666 26.2606 28.7558 26.2606ZM28.7825 23.9083C26.0827 23.9083 24.265 21.9837 24.265 19.3106C24.265 16.6375 26.0827 14.7129 28.7825 14.7129C31.509 14.7129 33.3267 16.6375 33.3267 19.3106C33.3267 21.9837 31.509 23.9083 28.7825 23.9083ZM37.9885 25.9131H40.528V18.1344C40.528 15.7019 41.7843 14.7129 43.6822 14.7129C45.5533 14.7129 46.8364 15.7019 46.8364 18.1344V18.2948H49.3491V18.1612C49.3491 14.2317 47.0503 12.3606 43.6822 12.3606C40.2874 12.3606 37.9885 14.2317 37.9885 18.1344V25.9131ZM57.2677 26.2606C59.5665 26.2606 61.5179 25.1646 62.4 23.0262V25.9131H64.7256V19.4175C64.7256 15.194 61.8387 12.3606 57.6954 12.3606C53.4987 12.3606 50.5583 15.2742 50.5583 19.4175C50.5583 23.7746 53.8194 26.2606 57.2677 26.2606ZM57.6687 23.9083C54.9421 23.9083 53.1244 21.9837 53.1244 19.3106C53.1244 16.6375 54.9421 14.7129 57.6687 14.7129C60.3952 14.7129 62.2129 16.6375 62.2129 19.3106C62.2129 21.9837 60.3952 23.9083 57.6687 23.9083ZM67.3558 25.9131H68.0508V18.0275C68.0508 14.7129 69.9487 13.0021 72.5683 13.0021C75.1612 13.0021 77.1126 14.7931 77.1126 18.0275V25.9131H77.8076V18.0275C77.8076 14.7931 79.7589 13.0021 82.3518 13.0021C84.9714 13.0021 86.8693 14.7129 86.8693 18.0275V25.9131H87.5643V18.0275C87.5643 14.2585 85.3456 12.3606 82.3785 12.3606C80.0262 12.3606 78.1283 13.5902 77.4601 16.0494C76.7918 13.5902 74.8939 12.3606 72.5416 12.3606C69.5745 12.3606 67.3558 14.2585 67.3558 18.0275V25.9131ZM96.72 26.2606C99.7139 26.2606 102.066 24.7904 103.162 22.1708V25.9131H103.83V19.364C103.83 15.2742 100.917 12.3606 96.7467 12.3606C92.5767 12.3606 89.6364 15.301 89.6364 19.3106C89.6364 23.3202 92.5767 26.2606 96.72 26.2606ZM96.7467 25.619C92.9242 25.619 90.3581 22.9192 90.3581 19.3106C90.3581 15.7019 92.9242 13.0021 96.7467 13.0021C100.569 13.0021 103.135 15.7019 103.135 19.3106C103.135 22.9192 100.569 25.619 96.7467 25.619ZM111.325 26.2606C114.533 26.2606 116.591 24.5498 116.591 22.1708C116.591 19.4977 114.025 19.2037 111.592 18.9364C109.293 18.669 107.128 18.4819 107.128 16.2365C107.128 14.2852 108.732 13.0021 111.298 13.0021C113.864 13.0021 115.442 14.2585 115.495 16.1564H116.19C116.137 13.9912 114.292 12.3606 111.298 12.3606C108.411 12.3606 106.407 13.911 106.407 16.3167C106.407 19.0165 108.973 19.3106 111.405 19.5779C113.704 19.8452 115.869 20.059 115.869 22.251C115.869 24.2023 114.158 25.6458 111.352 25.6458C108.598 25.6458 106.834 24.2558 106.754 22.3312H106.059C106.139 24.5765 108.117 26.2606 111.325 26.2606ZM119.342 25.9131H120.037V19.3106L128.912 25.9131H130.034L120.839 19.07L129.74 12.7081H128.644L120.037 18.8294V6.93424H119.342V25.9131Z" fill="white"/>
</svg>
